{
  "required": true,
  "package": "com.cobblemon.mod.fabric.mixin",
  "compatibilityLevel": "JAVA_8",
  "minVersion": "0.8",
  "client": [
    "GuiMixin",
    "pokeball.ModelLoaderMixin"
  ],
  "mixins": [
    "BrewingRecipeRegistryMixin",
    "PotionSlotMixin"
  ]
}